Record of packet Latencey (in ms)
761
0
1001583
0
0
0
0
1001552
0
0
0
0
0
0
0
0
1001301
0
0
0
0
0
1001407
0
0
0
0
0
1003201
0
0
0
0
0
0
1001219
0
0
0
0
1000506
0
0
0
1002888
0
0
0
0
1001191
0
0
0
0
0
