Record of packet Latencey (in ms)
0
0
0
746
92
278
126
293
16
234
283
227
360
206
481
1
426
158
315
158
518
0
376
182
2104
0
138
311
168
167
306
179
293
144
293
238
274
267
336
111
298
175
286
164
342
601
0
263
168
138
215
294
219
240
330
142
331
271
154
307
165
