Record of packet Latencey (in ms)
0
0
0
0
0
274
289
227
277
400
2871
0
293
335
413
64
271
220
245
255
176
299
200
363
405
4
166
453
0
257
287
230
250
222
286
293
203
156
453
185
200
348
228
342
167
406
118
332
185
319
195
261
360
82
511
419
576
162
0
0
316
253
254
