Record of packet Latencey (in ms)
0
0
407
185
307
59
308
328
149
262
327
130
177
271
291
329
67
513
57
494
98
238
190
221
245
286
143
396
225
213
209
310
223
333
337
182
106
351
807
0
0
278
317
173
218
279
229
190
336
261
103
221
345
431
148
112
184
256
341
171
