Record of packet Latencey (in ms)
0
0
202
297
165
232
352
194
119
230
935
882
0
243
360
78
295
268
299
322
301
115
228
211
1372
0
514
164
65
261
166
331
294
362
387
374
0
450
49
247
425
128
4641
0
0
225
233
0
313
260
371
330
47
243
273
118
329
272
222
300
253
