Record of packet Latencey (in ms)
0
622
955
940
846
816
1936
787
935
1046
883
955
893
886
1048
1055
744
1172
949
942
851
968
806
842
917
779
923
869
913
974
875
965
901
880
1007
982
880
766
936
1200
1061
859
993
778
1008
949
1598
424
905
1141
816
1245
821
959
825
1043
776
805
947
1009
