Record of packet Latencey (in ms)
0
168
155
438
69
341
228
354
208
236
185
253
319
517
0
271
278
175
169
239
228
296
473
158
358
43
250
354
97
252
234
318
168
285
229
279
311
129
249
155
240
252
290
237
191
215
381
65
348
398
129
120
258
438
126
259
278
227
245
381
