Record of packet Latencey (in ms)
0
4000245
4000202
4000310
4000208
4000167
4000272
4000337
4000120
4000257
4000239
4000395
4000312
4000152
4000190
4000251
4000241
4000266
4000154
4000330
4000199
4000289
4000237
4000238
4000386
4000664
3999748
4000212
4000253
4000404
4000136
4000294
4000201
4000266
4000345
4000158
4000267
4000193
4000390
4000277
4000118
4000293
4000272
4000452
3999937
4000266
4000225
4000291
4000269
4000291
4000128
4000251
4000609
3999873
4000359
4000362
4000070
4000312
4000216
4000262
